Zombies! – My Portfolio
…
time_values <- seq(0, 15)

zombie_value_1 <- ode(
  y = initial_values,
  time = time_values,
  func = zombie_equations,
  parms = parameters )

zombie_1 <- as.data.frame(zombie_value_1) %>%  
  pivot_longer(-time, names_to = "compartment", values_to = "count")
zombie_1 

# A tibble: 48 × 3
    time compartment        count
   <dbl> <chr>              <dbl>
 1     0 S           500         
 2     0 Z             0         
 3     0 R             0         
 4     1 S           500.        
 5     1 Z             0.00000865
 6     1 R             0.0500    
 7     2 S           500.        
 8     2 Z             0.000111  
 9     2 R             0.100     
10     3 S           500.        
# ℹ 38 more rows
…
